<?xml version="1.0" encoding="UTF-8" standalone="no"?>
<!-- Created with Inkscape (http://www.inkscape.org/) -->

<svg
   xmlns:dc="http://purl.org/dc/elements/1.1/"
   xmlns:cc="http://creativecommons.org/ns#"
   xmlns:rdf="http://www.w3.org/1999/02/22-rdf-syntax-ns#"
   xmlns:svg="http://www.w3.org/2000/svg"
   xmlns="http://www.w3.org/2000/svg"
   xmlns:sodipodi="http://sodipodi.sourceforge.net/DTD/sodipodi-0.dtd"
   xmlns:inkscape="http://www.inkscape.org/namespaces/inkscape"
   width="512"
   height="512"
   id="svg2"
   version="1.1"
   inkscape:version="0.48.4 r9939"
   viewBox="0 0 512 512.00001"
   sodipodi:docname="picker.svg"
   inkscape:export-filename="/home/bassam/src/rig_picker/picker.png"
   inkscape:export-xdpi="90"
   inkscape:export-ydpi="90">
  <defs
     id="defs4" />
  <sodipodi:namedview
     id="base"
     pagecolor="#9b9b9b"
     bordercolor="#666666"
     borderopacity="1.0"
     inkscape:pageopacity="0"
     inkscape:pageshadow="2"
     inkscape:zoom="0.46738497"
     inkscape:cx="-565.01146"
     inkscape:cy="315.69486"
     inkscape:document-units="px"
     inkscape:current-layer="layer3"
     showgrid="false"
     borderlayer="true"
     inkscape:showpageshadow="false"
     inkscape:window-width="1025"
     inkscape:window-height="778"
     inkscape:window-x="267"
     inkscape:window-y="196"
     inkscape:window-maximized="0" />
  <metadata
     id="metadata7">
    <rdf:RDF>
      <cc:Work
         rdf:about="">
        <dc:format>image/svg+xml</dc:format>
        <dc:type
           rdf:resource="http://purl.org/dc/dcmitype/StillImage" />
        <dc:title />
      </cc:Work>
    </rdf:RDF>
  </metadata>
  <g
     inkscape:label="frame"
     inkscape:groupmode="layer"
     id="layer1"
     transform="translate(0,-540.36219)"
     style="display:inline"
     sodipodi:insensitive="true">
    <rect
       style="opacity:0.475;fill:#ffffff;fill-opacity:1;stroke:#000000;stroke-width:0.97841328;stroke-linejoin:miter;stroke-miterlimit:4;stroke-opacity:1;stroke-dasharray:none"
       id="rect4101"
       width="500.9476"
       height="500.9476"
       x="5.5261912"
       y="545.88837"
       ry="18.961124" />
  </g>
  <g
     inkscape:groupmode="layer"
     id="layer2"
     inkscape:label="character"
     style="display:inline"
     sodipodi:insensitive="true">
    <path
       style="opacity:0.55;fill:#808080;fill-opacity:1;stroke:none"
       d="m 220.26519,140.58855 c -0.88127,68.31609 25.27339,39.85132 22.64398,66.13501 -1.16411,11.63648 -9.08909,-0.29767 -16.74205,6.32111 -7.65296,6.61877 -21.07692,25.25775 -37.94697,37.11056 -16.87005,11.85281 -44.74173,39.96002 -62.61085,56.74558 3.55532,1.91772 11.28915,10.72031 11.74226,11.62653 7.20082,-8.01771 22.22219,-13.03728 38.09574,-33.62055 6.94954,-9.01148 49.93102,-44.84612 51.01168,-42.88726 3.18597,5.77509 -4.5791,21.72557 0.34711,36.99805 4.9262,15.27247 -1.09944,28.15471 -1.21007,36.60012 -0.11062,8.44542 -1.27434,21.35294 -13.93789,48.25093 -12.66355,26.89799 -27.67986,65.39922 -58.59526,110.11517 l 26.7922,14.29699 c 32.48477,-66.33272 66.78549,-145.66663 76.08243,-145.66663 9.29694,0 45.61723,77.81924 78.102,144.15196 l 25.78241,-13.28721 c -30.9154,-44.71595 -46.94149,-82.71229 -59.60504,-109.61028 -12.66355,-26.89799 -13.32433,-39.80551 -13.43495,-48.25093 -0.11063,-8.44541 -6.89165,-21.32765 -1.96545,-36.60012 4.92621,-15.27248 -2.58642,-31.22296 0.59955,-36.99805 1.08066,-1.95886 43.55529,32.3611 50.50483,41.37258 15.87355,20.58327 31.40177,27.11752 38.60259,35.13523 0.45311,-0.90622 7.17521,-9.45637 10.73053,-11.37409 -17.86912,-16.78556 -46.7506,-44.38787 -63.62065,-56.24068 -16.87005,-11.85281 -30.29401,-31.50158 -37.94697,-38.12035 -7.65296,-6.61878 -13.80885,6.07271 -14.97296,-5.56377 -2.62941,-26.28369 20.99883,5.96778 21.12735,-67.90214 1.91116,-36.61191 7.44112,-55.697862 -33.92049,-55.273212 -42.62384,2.191774 -34.97083,13.317298 -35.65506,56.535452 z"
       id="path4104"
       inkscape:connector-curvature="0"
       sodipodi:nodetypes="csssccssssscccccsssssccsssccc"
       transform="translate(-5e-6,0)" />
  </g>
  <g
     inkscape:groupmode="layer"
     id="layer4"
     inkscape:label="squares"
     sodipodi:insensitive="true"
     style="display:inline">
    <rect
       transform="translate(4.9999999e-6,0)"
       style="fill:#87bcbc;fill-opacity:1;stroke:none;display:inline"
       id="rect4163"
       width="55.726143"
       height="110.34279"
       x="228.13693"
       y="89.202377"
       ry="5.4496121" />
    <rect
       transform="translate(4.9999999e-6,0)"
       ry="5.2786989"
       y="211.70828"
       x="228.13693"
       height="106.88217"
       width="55.726143"
       id="rect4165"
       style="fill:#87bcbc;fill-opacity:1;stroke:none;display:inline" />
    <rect
       style="fill:#d4ae6f;fill-opacity:1;stroke:none;display:inline"
       id="rect4167"
       width="20.76371"
       height="151.57509"
       x="354.11343"
       y="188.60739"
       ry="10.200553"
       transform="matrix(0.89582087,0.44441526,-0.44441526,0.89582087,4.9999999e-6,0)" />
    <rect
       transform="matrix(-0.89582087,0.44441526,0.44441526,0.89582087,4.9999999e-6,0)"
       ry="10.200553"
       y="418.07944"
       x="-105.32536"
       height="151.57509"
       width="20.76371"
       id="rect4169"
       style="fill:#736fd4;fill-opacity:1;stroke:none;display:inline" />
    <rect
       style="fill:#ce7575;fill-opacity:1;stroke:none;display:inline"
       id="rect4171"
       width="13.150351"
       height="130.81137"
       x="314.70389"
       y="-23.609472"
       ry="8.9976072"
       transform="matrix(0.66096697,0.75041497,-0.75041497,0.66096697,4.9999999e-6,0)" />
    <rect
       transform="matrix(-0.66096697,0.75041497,0.75041497,0.66096697,4.9999999e-6,0)"
       ry="8.9976072"
       y="359.69296"
       x="-22.909643"
       height="130.81137"
       width="13.150351"
       id="rect4173"
       style="fill:#49bd44;fill-opacity:1;stroke:none;display:inline" />
  </g>
  <g
     inkscape:groupmode="layer"
     id="layer3"
     inkscape:label="boundingboxes"
     style="display:inline">
    <ellipse
       style="opacity:0.32900002;fill:#000000;fill-opacity:1"
       id="head_1"
       cx="216.51161"
       cy="88.133202"
       rx="8.586297"
       ry="8.0812206"
       sodipodi:cx="216.51161"
       sodipodi:cy="88.133202"
       sodipodi:rx="8.586297"
       sodipodi:ry="8.0812206" />
    <ellipse
       ry="8.0812206"
       rx="8.586297"
       cy="87.061638"
       cx="293.30347"
       id="head_2"
       style="opacity:0.32900002;fill:#000000;fill-opacity:1"
       sodipodi:cx="293.30347"
       sodipodi:cy="87.061638"
       sodipodi:rx="8.586297"
       sodipodi:ry="8.0812206" />
    <ellipse
       ry="8.0812206"
       rx="8.586297"
       cy="198.13864"
       cx="214.36954"
       id="head_4"
       style="opacity:0.32900002;fill:#000000;fill-opacity:1"
       sodipodi:cx="214.36954"
       sodipodi:cy="198.13864"
       sodipodi:rx="8.586297"
       sodipodi:ry="8.0812206" />
    <ellipse
       style="opacity:0.32900002;fill:#000000;fill-opacity:1"
       id="head_3"
       cx="289.01981"
       cy="197.06761"
       rx="8.586297"
       ry="8.0812206"
       sodipodi:cx="289.01981"
       sodipodi:cy="197.06761"
       sodipodi:rx="8.586297"
       sodipodi:ry="8.0812206" />
    <ellipse
       ry="8.0812206"
       rx="8.586297"
       cy="209.09361"
       cx="227.07394"
       id="body_1"
       style="opacity:0.32900002;fill:#00ff00;fill-opacity:1"
       sodipodi:cx="227.07394"
       sodipodi:cy="209.09361"
       sodipodi:rx="8.586297"
       sodipodi:ry="8.0812206" />
    <ellipse
       style="opacity:0.32900002;fill:#00ff00;fill-opacity:1"
       id="body_2"
       cx="286.25092"
       cy="209.74675"
       rx="8.586297"
       ry="8.0812206"
       sodipodi:cx="286.25092"
       sodipodi:cy="209.74675"
       sodipodi:rx="8.586297"
       sodipodi:ry="8.0812206" />
    <ellipse
       style="opacity:0.32900002;fill:#00ff00;fill-opacity:1"
       id="body_4"
       cx="222.2298"
       cy="320.27841"
       rx="8.586297"
       ry="8.0812206"
       sodipodi:cx="222.2298"
       sodipodi:cy="320.27841"
       sodipodi:rx="8.586297"
       sodipodi:ry="8.0812206" />
    <ellipse
       ry="8.0812206"
       rx="8.586297"
       cy="319.56412"
       cx="289.01331"
       id="body_3"
       style="opacity:0.32900002;fill:#00ff00;fill-opacity:1"
       sodipodi:cx="289.01331"
       sodipodi:cy="319.56412"
       sodipodi:rx="8.586297"
       sodipodi:ry="8.0812206" />
    <ellipse
       style="opacity:0.32900002;fill:#ffff00;fill-opacity:1"
       id="arm_R_1"
       cx="222.55038"
       cy="227.02573"
       rx="8.586297"
       ry="8.0812206"
       inkscape:label="#arm_R_1"
       sodipodi:cx="222.55038"
       sodipodi:cy="227.02573"
       sodipodi:rx="8.586297"
       sodipodi:ry="8.0812206" />
    <ellipse
       ry="8.0812206"
       rx="8.586297"
       cy="248.28101"
       cx="237.29044"
       id="arm_R_2"
       style="opacity:0.32900002;fill:#ffff00;fill-opacity:1"
       sodipodi:cx="237.29044"
       sodipodi:cy="248.28101"
       sodipodi:rx="8.586297"
       sodipodi:ry="8.0812206" />
    <ellipse
       style="opacity:0.32900002;fill:#ffff00;fill-opacity:1"
       id="arm_R_3"
       cx="134.01486"
       cy="333.36768"
       rx="8.586297"
       ry="8.0812206"
       inkscape:label="#arm_R_3"
       sodipodi:cx="134.01486"
       sodipodi:cy="333.36768"
       sodipodi:rx="8.586297"
       sodipodi:ry="8.0812206" />
    <ellipse
       ry="8.0812206"
       rx="8.586297"
       cy="303.43945"
       cx="117.46375"
       id="arm_R_4"
       style="opacity:0.32900002;fill:#ffff00;fill-opacity:1"
       inkscape:label="#arm_R_4"
       sodipodi:cx="117.46375"
       sodipodi:cy="303.43945"
       sodipodi:rx="8.586297"
       sodipodi:ry="8.0812206" />
    <ellipse
       style="opacity:0.32900002;fill:#ffff00;fill-opacity:1"
       id="arm_L_2"
       cx="291.15771"
       cy="220.63307"
       rx="8.586297"
       ry="8.0812206"
       sodipodi:cx="291.15771"
       sodipodi:cy="220.63307"
       sodipodi:rx="8.586297"
       sodipodi:ry="8.0812206" />
    <ellipse
       style="opacity:0.32900002;fill:#ffff00;fill-opacity:1"
       id="arm_L_1"
       cx="282.5863"
       cy="249.2045"
       rx="8.586297"
       ry="8.0812206"
       inkscape:label="#arm_L_1"
       sodipodi:cx="282.5863"
       sodipodi:cy="249.2045"
       sodipodi:rx="8.586297"
       sodipodi:ry="8.0812206" />
    <ellipse
       style="opacity:0.32900002;fill:#ffff00;fill-opacity:1"
       id="arm_L_3"
       cx="389.13742"
       cy="308.28101"
       rx="8.586297"
       ry="8.0812206"
       inkscape:label="#arm_L_3"
       sodipodi:cx="389.13742"
       sodipodi:cy="308.28101"
       sodipodi:rx="8.586297"
       sodipodi:ry="8.0812206" />
    <ellipse
       ry="8.0812206"
       rx="8.586297"
       cy="327.77594"
       cx="371.15771"
       id="arm_L_4"
       style="opacity:0.32900002;fill:#ffff00;fill-opacity:1"
       inkscape:label="#arm_L_4"
       sodipodi:cx="371.15771"
       sodipodi:cy="327.77594"
       sodipodi:rx="8.586297"
       sodipodi:ry="8.0812206" />
    <ellipse
       style="opacity:0.32900002;fill:#ffff00;fill-opacity:1"
       id="leg_R_1"
       cx="234.72914"
       cy="314.91879"
       rx="8.586297"
       ry="8.0812206"
       inkscape:label="#leg_R_1"
       sodipodi:cx="234.72914"
       sodipodi:cy="314.91879"
       sodipodi:rx="8.586297"
       sodipodi:ry="8.0812206" />
    <ellipse
       ry="8.0812206"
       rx="8.586297"
       cy="332.77594"
       cx="256.15771"
       id="leg_R_2"
       style="opacity:0.32900002;fill:#ffff00;fill-opacity:1"
       inkscape:label="#leg_R_2"
       sodipodi:cx="256.15771"
       sodipodi:cy="332.77594"
       sodipodi:rx="8.586297"
       sodipodi:ry="8.0812206" />
    <ellipse
       ry="8.0812206"
       rx="8.586297"
       cy="471.34738"
       cx="153.30058"
       id="leg_R_4"
       style="opacity:0.32900002;fill:#ffff00;fill-opacity:1"
       sodipodi:cx="153.30058"
       sodipodi:cy="471.34738"
       sodipodi:rx="8.586297"
       sodipodi:ry="8.0812206" />
    <ellipse
       style="opacity:0.32900002;fill:#ffff00;fill-opacity:1"
       id="leg_R_3"
       cx="182.58629"
       cy="484.91882"
       rx="8.586297"
       ry="8.0812206"
       inkscape:label="#leg_R_3"
       sodipodi:cx="182.58629"
       sodipodi:cy="484.91882"
       sodipodi:rx="8.586297"
       sodipodi:ry="8.0812206" />
    <ellipse
       style="opacity:0.32900002;fill:#000000;fill-opacity:1"
       id="leg_L_2"
       cx="277.37708"
       cy="314.29117"
       rx="8.586297"
       ry="8.0812206"
       inkscape:label="#leg_L_2"
       sodipodi:cx="277.37708"
       sodipodi:cy="314.29117"
       sodipodi:rx="8.586297"
       sodipodi:ry="8.0812206" />
    <ellipse
       style="opacity:0.32900002;fill:#000000;fill-opacity:1"
       id="leg_L_1"
       cx="255.9052"
       cy="332.48007"
       rx="8.586297"
       ry="8.0812206"
       inkscape:label="#leg_L_1"
       sodipodi:cx="255.9052"
       sodipodi:cy="332.48007"
       sodipodi:rx="8.586297"
       sodipodi:ry="8.0812206" />
    <ellipse
       style="opacity:0.32900002;fill:#000000;fill-opacity:1"
       id="leg_L_3"
       cx="352.11716"
       cy="476.93909"
       rx="8.586297"
       ry="8.0812206"
       inkscape:transform-center-x="-1.5152287"
       inkscape:transform-center-y="-1.5152292"
       inkscape:label="#leg_L_3"
       sodipodi:cx="352.11716"
       sodipodi:cy="476.93909"
       sodipodi:rx="8.586297"
       sodipodi:ry="8.0812206" />
    <ellipse
       style="opacity:0.32900002;fill:#000000;fill-opacity:1"
       id="leg_L_4"
       cx="333.3006"
       cy="486.34738"
       rx="8.586297"
       ry="8.0812206"
       sodipodi:cx="333.3006"
       sodipodi:cy="486.34738"
       sodipodi:rx="8.586297"
       sodipodi:ry="8.0812206" />
  </g>
</svg>
